(footprint "LED_D3.0mm" (version 20211014) (generator pcbnew)
  (layer "F.Cu")
  (tedit 587A3A7B)
  (descr "LED, diameter 3.0mm, 2 pins")
  (tags "LED diameter 3.0mm 2 pins")
  (attr through_hole)
  (fp_text reference "REF**" (at 1.27 -2.96) (layer "F.SilkS")
    (effects (font (size 1 1) (thickness 0.15)))
    (tstamp 1f80bb27-ee14-4fcf-ba6e-3568dd4d624f)
  )
  (fp_text value "LED_D3.0mm" (at 1.27 2.96) (layer "F.Fab")
    (effects (font (size 1 1) (thickness 0.15)))
    (tstamp d54726f0-b6d3-42b6-8d9c-fd42a23f633c)
  )
  (fp_line (start 3.8 1.3) (end 3.8 -1.3) (layer "F.CrtYd") (width 0.05) (tstamp 1730d9c5-067e-403c-8d6e-6ada6c5488d4))
  (fp_line (start -1.3 1.3) (end 3.8 1.3) (layer "F.CrtYd") (width 0.05) (tstamp 2594ad6e-9561-4b10-a3e9-32e24c1df2a9))
  (fp_line (start 3.8 -1.3) (end -1.3 -1.3) (layer "F.CrtYd") (width 0.05) (tstamp 5e498942-90f7-437d-8a99-ff03d76a1238))
  (fp_line (start -1.3 -1.3) (end -1.3 1.3) (layer "F.CrtYd") (width 0.05) (tstamp f255eda8-2973-457c-840d-c0598979d6f5))
  (fp_line (start -0.23 -1.16619) (end -0.23 1.16619) (layer "F.Fab") (width 0.1) (tstamp 912ad635-9c59-4538-b92b-3955cb8a583e))
  (fp_line (start 1.25 -0.5) (end 1.25 0.5) (layer "F.Fab") (width 0.1) (tstamp a4e76bcc-d387-4e16-8044-2bc988fb696c))
  (fp_arc (start -0.23 -1.16619) (mid 3.17 0.000452) (end -0.230555 1.165476) (layer "F.Fab") (width 0.1) (tstamp e93bc5a4-fa81-4863-ac5f-cb1a6b0be381))
  (fp_circle (center 1.27 0) (end 2.77 0) (layer "F.Fab") (width 0.1) (fill none) (tstamp 85d57102-4dac-4412-b5f5-9e74a336e1af))
  (pad "1" thru_hole rect (at 0 0) (size 1.8 1.8) (drill 0.9) (layers *.Cu *.Mask) (tstamp 8783ac08-561a-4255-80ef-1129120d909b))
  (pad "2" thru_hole circle (at 2.54 0) (size 1.8 1.8) (drill 0.9) (layers *.Cu *.Mask) (tstamp 8e0e0ea3-2516-4fd0-8aea-12f875849f4a))
  (model "${KICAD6_3DMODEL_DIR}/LED_THT.3dshapes/LED_D3.0mm.wrl"
    (offset (xyz 0 0 0))
    (scale (xyz 1 1 1))
    (rotate (xyz 0 0 0))
  )
)
