(footprint "RES_L3.6mm_D1.6mm_P5.08mm" (version 20211014) (generator pcbnew)
  (layer "F.Cu")
  (tedit 5AE5139B)
  (descr "Resistor, Axial_DIN0204 series, Axial, Horizontal, pin pitch=5.08mm, 0.167W, length*diameter=3.6*1.6mm^2, http://cdn-reichelt.de/documents/datenblatt/B400/1_4W%23YAG.pdf")
  (tags "Resistor Axial_DIN0204 series Axial Horizontal pin pitch 5.08mm 0.167W length 3.6mm diameter 1.6mm")
  (property "Sheetfile" "GhostEcho.kicad_sch")
  (property "Sheetname" "")
  (attr through_hole)
  (fp_text reference "R7" (at 2.54 0) (layer "F.SilkS")
    (effects (font (size 1 1) (thickness 0.15)))
    (tstamp dfc436be-90df-43ef-8e4a-19722fcb90bf)
  )
  (fp_text value "100k" (at 2.54 1.92) (layer "F.Fab")
    (effects (font (size 1 1) (thickness 0.15)))
    (tstamp dfed06a7-46c9-4cb0-bc30-96301a28d814)
  )
  (fp_text user "${REFERENCE}" (at 2.54 0) (layer "F.Fab")
    (effects (font (size 0.72 0.72) (thickness 0.108)))
    (tstamp 786378b3-e610-4ac3-8b2c-dab91aa7b085)
  )
  (fp_line (start 0.62 0.92) (end 4.46 0.92) (layer "F.SilkS") (width 0.12) (tstamp f5bd0ef1-773e-43ba-9f72-5a94a4c0c02f))
  (fp_line (start 0.62 -0.92) (end 4.46 -0.92) (layer "F.SilkS") (width 0.12) (tstamp fc0fde9c-9222-4ef7-8a27-00381ef92e4b))
  (fp_line (start -0.95 1.05) (end 6.03 1.05) (layer "F.CrtYd") (width 0.05) (tstamp 53fac9f7-b670-4a76-b0f5-a182a26f60b3))
  (fp_line (start 6.03 -1.05) (end -0.95 -1.05) (layer "F.CrtYd") (width 0.05) (tstamp 76408597-bfb4-4a64-a5c7-9f11d6601766))
  (fp_line (start -0.95 -1.05) (end -0.95 1.05) (layer "F.CrtYd") (width 0.05) (tstamp 828dc4b5-70df-44d7-8308-c0b5c7edd547))
  (fp_line (start 6.03 1.05) (end 6.03 -1.05) (layer "F.CrtYd") (width 0.05) (tstamp 92cb19d5-f137-47b3-b71d-277893fc24d5))
  (fp_line (start 4.34 -0.8) (end 0.74 -0.8) (layer "F.Fab") (width 0.1) (tstamp 32a455a2-8816-4033-857c-b07aa62e5f30))
  (fp_line (start 5.08 0) (end 4.34 0) (layer "F.Fab") (width 0.1) (tstamp 3c8a2f02-021d-4653-bfbd-2e64e9e055d8))
  (fp_line (start 0.74 0.8) (end 4.34 0.8) (layer "F.Fab") (width 0.1) (tstamp 463c209b-2dbd-4a13-9bb6-9aa9f6d7967c))
  (fp_line (start 0.74 -0.8) (end 0.74 0.8) (layer "F.Fab") (width 0.1) (tstamp 5221059e-f0b1-4f50-a3c5-321e721ba446))
  (fp_line (start 0 0) (end 0.74 0) (layer "F.Fab") (width 0.1) (tstamp baf2bb38-7f2c-4ad6-b413-9de493420199))
  (fp_line (start 4.34 0.8) (end 4.34 -0.8) (layer "F.Fab") (width 0.1) (tstamp fcbda061-8d9b-4929-943f-3a3a3f2af6ff))
  (pad "1" thru_hole circle (at 0 0) (size 1.4 1.4) (drill 0.7) (layers *.Cu *.Mask) (tstamp 0da7aa81-6d30-4986-af23-5780875713ab))
  (pad "2" thru_hole oval (at 5.08 0) (size 1.4 1.4) (drill 0.7) (layers *.Cu *.Mask) (tstamp 621b6512-c657-42f5-ad8f-192e0c0c26bb))
  (model "${KICAD6_3DMODEL_DIR}/Resistor_THT.3dshapes/R_Axial_DIN0204_L3.6mm_D1.6mm_P5.08mm_Horizontal.wrl"
    (offset (xyz 0 0 0))
    (scale (xyz 1 1 1))
    (rotate (xyz 0 0 0))
  )
)
